Final project
…
#Join education, income, teacher ratio
df3 <- full_join (df2, school, by=c("State"="state_abb")) %>% na.omit()
df3 <- df3 %>% 
  select(State, lower_high, income_17_21, ratio_lower, ratio_teacher, Total_fund)

datatable(df3, options=list(lengthMenu = c(3,10,30)),extensions="Responsive")

Code

df3

# A tibble: 50 × 6
   State lower_high income_17_21 ratio_lower ratio_teacher Total_fund
   <chr>      <dbl>        <dbl>       <dbl>         <dbl>      <dbl>
 1 AK       429106.       380994        2.84          17.3   2614818.
 2 AL      2942512        268619        2.32          17.7   8703515.
 3 AR      1874906        255632        2.16          13.2   5874455.
 4 AZ      3371916        330566        2.84          23.4  12175096.
 5 CA     19426378        377859        2.76          23.1 100127294.
 6 CO      2223192        389248        3.54          17.2  13187699.
 7 CT      1763940        394797        2.85          12.1  11884392.
 8 DE       543432        342876        2.54          14.4   2450066.
 9 FL     11930868        283595        2.57          16.6  33934527.
10 GA      5514674        291196        2.57          15.1  23826892.
# … with 40 more rows
…
